%YAML 1.1
%TAG !u! tag:unity3d.com,2011:
--- !u!74 &7400000
AnimationClip:
  m_ObjectHideFlags: 0
  m_CorrespondingSourceObject: {fileID: 0}
  m_PrefabInstance: {fileID: 0}
  m_PrefabAsset: {fileID: 0}
  m_Name: Dead
  serializedVersion: 6
  m_Legacy: 0
  m_Compressed: 0
  m_UseHighQualityCurve: 1
  m_RotationCurves: []
  m_CompressedRotationCurves: []
  m_EulerCurves: []
  m_PositionCurves: []
  m_ScaleCurves: []
  m_FloatCurves: []
  m_PPtrCurves:
  - curve:
    - time: 0
      value: {fileID: 21300000, guid: 389d08f397234924a93c7b382b89cd4a, type: 3}
    - time: 0.083333336
      value: {fileID: 21300000, guid: 8becd98ca20740340889c17c2a60f6c3, type: 3}
    - time: 0.16666667
      value: {fileID: 21300000, guid: 2a4ad12fbf6607145829f20389af9895, type: 3}
    - time: 0.25
      value: {fileID: 21300000, guid: b389eedee02b9d34a863e5002abe69f0, type: 3}
    - time: 0.33333334
      value: {fileID: 21300000, guid: 3372cb047bf504e4c9165166cefd7f56, type: 3}
    - time: 0.41666666
      value: {fileID: 21300000, guid: 4da3e7df157bfc146b2350eb8be1889f, type: 3}
    - time: 0.5
      value: {fileID: 21300000, guid: 11a97e7b6273a1d49a9796f874da77c2, type: 3}
    - time: 0.5833333
      value: {fileID: 21300000, guid: 66ca58c57d2b2364c932c230bdad3075, type: 3}
    - time: 0.6666667
      value: {fileID: 21300000, guid: 038a42e3374564a40b0a402f4d2f61c4, type: 3}
    - time: 0.75
      value: {fileID: 21300000, guid: 46b7b8af7098c7b47bf39122e33da73d, type: 3}
    - time: 0.8333333
      value: {fileID: 21300000, guid: 1eed482e34964304495ece13fc6ff74d, type: 3}
    - time: 0.9166667
      value: {fileID: 21300000, guid: 4589d3c9338741c41b74ab5d88e63a7e, type: 3}
    - time: 1
      value: {fileID: 21300000, guid: 795026702e91fd54fac7d19e3f36d2a6, type: 3}
    - time: 1.0833334
      value: {fileID: 21300000, guid: 9e2df3de5699fd5419754cf08c923915, type: 3}
    - time: 1.1666666
      value: {fileID: 21300000, guid: 96d8db91d9527504d91ee024b6c19fc9, type: 3}
    - time: 1.25
      value: {fileID: 21300000, guid: 3d9c923e1f70901468a97d9929db9b81, type: 3}
    - time: 1.3333334
      value: {fileID: 21300000, guid: 65c1bd403546332439caba0c198a8b81, type: 3}
    - time: 1.4166666
      value: {fileID: 21300000, guid: a8b49489dd8f4e24584bb4eb74a727e1, type: 3}
    - time: 1.5
      value: {fileID: 21300000, guid: fdf56241464f156478da2549c1faec65, type: 3}
    - time: 1.5833334
      value: {fileID: 21300000, guid: c09c2d05975d13e4abeb0b4022ea67b1, type: 3}
    - time: 1.6666666
      value: {fileID: 21300000, guid: c6d6e21dddfa5a947ba5bbeccd3e5f22, type: 3}
    - time: 1.75
      value: {fileID: 21300000, guid: 03004f36cef901b4eaaf313b1790cb26, type: 3}
    - time: 1.8333334
      value: {fileID: 21300000, guid: eddbfb39d0ff12a43a9808967dd89e50, type: 3}
    - time: 1.9166666
      value: {fileID: 21300000, guid: 6c7cee3f95331fb46b4c18c2c3789dbd, type: 3}
    - time: 2
      value: {fileID: 21300000, guid: 99878f9d8485529468309063b59d2b62, type: 3}
    - time: 2.0833333
      value: {fileID: 21300000, guid: cdf3dcbf6ee40c34bb1efac62c2e8cba, type: 3}
    - time: 2.1666667
      value: {fileID: 21300000, guid: b9e3bfc1ff2b57d4b92ff8dac8412f8e, type: 3}
    - time: 2.25
      value: {fileID: 21300000, guid: acb85611a96cf224a8edfcb5e26b7803, type: 3}
    - time: 2.3333333
      value: {fileID: 21300000, guid: bebf6f4f53383bd43ac0940694458c74, type: 3}
    - time: 2.4166667
      value: {fileID: 21300000, guid: 467870c8cc976f140a5b1dbf4fe8ec22, type: 3}
    - time: 2.5
      value: {fileID: 21300000, guid: 25eb2950cd05e0d42846050a694bf14e, type: 3}
    - time: 2.5833333
      value: {fileID: 21300000, guid: f1dcf377099f69d4a810779c0fb29018, type: 3}
    - time: 2.6666667
      value: {fileID: 21300000, guid: 51e850a74d2f772438627e733818a689, type: 3}
    - time: 2.75
      value: {fileID: 21300000, guid: 7ab68f049e296824c899b6685a8ffc73, type: 3}
    - time: 2.8333333
      value: {fileID: 21300000, guid: 14daddb7854ccc644b38b44e2bcb00a2, type: 3}
    - time: 2.9166667
      value: {fileID: 21300000, guid: 0c6536d609c52c74e822f6f91fcd4e29, type: 3}
    - time: 3
      value: {fileID: 21300000, guid: 1849dad4e2b889d418960c5568404f97, type: 3}
    - time: 3.0833333
      value: {fileID: 21300000, guid: 69d9b6f19d869754eaca1d1092a1f92c, type: 3}
    - time: 3.1666667
      value: {fileID: 21300000, guid: 32b10d77bfde4b347b8c995aae18c037, type: 3}
    - time: 3.25
      value: {fileID: 21300000, guid: f13ee7491b3b49641b075eff33a9784e, type: 3}
    - time: 3.3333333
      value: {fileID: 21300000, guid: 3450aec08fc7572478359da90cc2afc5, type: 3}
    attribute: m_Sprite
    path: 
    classID: 212
    script: {fileID: 0}
  m_SampleRate: 12
  m_WrapMode: 0
  m_Bounds:
    m_Center: {x: 0, y: 0, z: 0}
    m_Extent: {x: 0, y: 0, z: 0}
  m_ClipBindingConstant:
    genericBindings:
    - serializedVersion: 2
      path: 0
      attribute: 0
      script: {fileID: 0}
      typeID: 212
      customType: 23
      isPPtrCurve: 1
    pptrCurveMapping:
    - {fileID: 21300000, guid: 389d08f397234924a93c7b382b89cd4a, type: 3}
    - {fileID: 21300000, guid: 8becd98ca20740340889c17c2a60f6c3, type: 3}
    - {fileID: 21300000, guid: 2a4ad12fbf6607145829f20389af9895, type: 3}
    - {fileID: 21300000, guid: b389eedee02b9d34a863e5002abe69f0, type: 3}
    - {fileID: 21300000, guid: 3372cb047bf504e4c9165166cefd7f56, type: 3}
    - {fileID: 21300000, guid: 4da3e7df157bfc146b2350eb8be1889f, type: 3}
    - {fileID: 21300000, guid: 11a97e7b6273a1d49a9796f874da77c2, type: 3}
    - {fileID: 21300000, guid: 66ca58c57d2b2364c932c230bdad3075, type: 3}
    - {fileID: 21300000, guid: 038a42e3374564a40b0a402f4d2f61c4, type: 3}
    - {fileID: 21300000, guid: 46b7b8af7098c7b47bf39122e33da73d, type: 3}
    - {fileID: 21300000, guid: 1eed482e34964304495ece13fc6ff74d, type: 3}
    - {fileID: 21300000, guid: 4589d3c9338741c41b74ab5d88e63a7e, type: 3}
    - {fileID: 21300000, guid: 795026702e91fd54fac7d19e3f36d2a6, type: 3}
    - {fileID: 21300000, guid: 9e2df3de5699fd5419754cf08c923915, type: 3}
    - {fileID: 21300000, guid: 96d8db91d9527504d91ee024b6c19fc9, type: 3}
    - {fileID: 21300000, guid: 3d9c923e1f70901468a97d9929db9b81, type: 3}
    - {fileID: 21300000, guid: 65c1bd403546332439caba0c198a8b81, type: 3}
    - {fileID: 21300000, guid: a8b49489dd8f4e24584bb4eb74a727e1, type: 3}
    - {fileID: 21300000, guid: fdf56241464f156478da2549c1faec65, type: 3}
    - {fileID: 21300000, guid: c09c2d05975d13e4abeb0b4022ea67b1, type: 3}
    - {fileID: 21300000, guid: c6d6e21dddfa5a947ba5bbeccd3e5f22, type: 3}
    - {fileID: 21300000, guid: 03004f36cef901b4eaaf313b1790cb26, type: 3}
    - {fileID: 21300000, guid: eddbfb39d0ff12a43a9808967dd89e50, type: 3}
    - {fileID: 21300000, guid: 6c7cee3f95331fb46b4c18c2c3789dbd, type: 3}
    - {fileID: 21300000, guid: 99878f9d8485529468309063b59d2b62, type: 3}
    - {fileID: 21300000, guid: cdf3dcbf6ee40c34bb1efac62c2e8cba, type: 3}
    - {fileID: 21300000, guid: b9e3bfc1ff2b57d4b92ff8dac8412f8e, type: 3}
    - {fileID: 21300000, guid: acb85611a96cf224a8edfcb5e26b7803, type: 3}
    - {fileID: 21300000, guid: bebf6f4f53383bd43ac0940694458c74, type: 3}
    - {fileID: 21300000, guid: 467870c8cc976f140a5b1dbf4fe8ec22, type: 3}
    - {fileID: 21300000, guid: 25eb2950cd05e0d42846050a694bf14e, type: 3}
    - {fileID: 21300000, guid: f1dcf377099f69d4a810779c0fb29018, type: 3}
    - {fileID: 21300000, guid: 51e850a74d2f772438627e733818a689, type: 3}
    - {fileID: 21300000, guid: 7ab68f049e296824c899b6685a8ffc73, type: 3}
    - {fileID: 21300000, guid: 14daddb7854ccc644b38b44e2bcb00a2, type: 3}
    - {fileID: 21300000, guid: 0c6536d609c52c74e822f6f91fcd4e29, type: 3}
    - {fileID: 21300000, guid: 1849dad4e2b889d418960c5568404f97, type: 3}
    - {fileID: 21300000, guid: 69d9b6f19d869754eaca1d1092a1f92c, type: 3}
    - {fileID: 21300000, guid: 32b10d77bfde4b347b8c995aae18c037, type: 3}
    - {fileID: 21300000, guid: f13ee7491b3b49641b075eff33a9784e, type: 3}
    - {fileID: 21300000, guid: 3450aec08fc7572478359da90cc2afc5, type: 3}
  m_AnimationClipSettings:
    serializedVersion: 2
    m_AdditiveReferencePoseClip: {fileID: 0}
    m_AdditiveReferencePoseTime: 0
    m_StartTime: 0
    m_StopTime: 3.4166665
    m_OrientationOffsetY: 0
    m_Level: 0
    m_CycleOffset: 0
    m_HasAdditiveReferencePose: 0
    m_LoopTime: 1
    m_LoopBlend: 0
    m_LoopBlendOrientation: 0
    m_LoopBlendPositionY: 0
    m_LoopBlendPositionXZ: 0
    m_KeepOriginalOrientation: 0
    m_KeepOriginalPositionY: 1
    m_KeepOriginalPositionXZ: 0
    m_HeightFromFeet: 0
    m_Mirror: 0
  m_EditorCurves: []
  m_EulerEditorCurves: []
  m_HasGenericRootTransform: 0
  m_HasMotionFloatCurves: 0
  m_Events: []
