%YAML 1.1
%TAG !u! tag:unity3d.com,2011:
--- !u!1001 &5988180989755911021
PrefabInstance:
  m_ObjectHideFlags: 0
  serializedVersion: 2
  m_Modification:
    m_TransformParent: {fileID: 0}
    m_Modifications:
    - target: {fileID: 575691580168378254, guid: 96befc4691407bd4cb5b1ab85cdaf9e5,
        type: 3}
      propertyPath: m_Layer
      value: 10
      objectReference: {fileID: 0}
    - target: {fileID: 935696363530629345, guid: 96befc4691407bd4cb5b1ab85cdaf9e5,
        type: 3}
      propertyPath: m_Offset.y
      value: -1.3477573
      objectReference: {fileID: 0}
    - target: {fileID: 935696363530629345, guid: 96befc4691407bd4cb5b1ab85cdaf9e5,
        type: 3}
      propertyPath: m_Size.y
      value: 22.134315
      objectReference: {fileID: 0}
    - target: {fileID: 935696363530629346, guid: 96befc4691407bd4cb5b1ab85cdaf9e5,
        type: 3}
      propertyPath: m_Name
      value: Personaje
      objectReference: {fileID: 0}
    - target: {fileID: 935696363530629346, guid: 96befc4691407bd4cb5b1ab85cdaf9e5,
        type: 3}
      propertyPath: m_TagString
      value: Player
      objectReference: {fileID: 0}
    - target: {fileID: 935696363530629346, guid: 96befc4691407bd4cb5b1ab85cdaf9e5,
        type: 3}
      propertyPath: m_Layer
      value: 10
      objectReference: {fileID: 0}
    - target: {fileID: 935696363530629347, guid: 96befc4691407bd4cb5b1ab85cdaf9e5,
        type: 3}
      propertyPath: m_GravityScale
      value: 1.36
      objectReference: {fileID: 0}
    - target: {fileID: 935696363530629351, guid: 96befc4691407bd4cb5b1ab85cdaf9e5,
        type: 3}
      propertyPath: m_LocalPosition.x
      value: -9.09
      objectReference: {fileID: 0}
    - target: {fileID: 935696363530629351, guid: 96befc4691407bd4cb5b1ab85cdaf9e5,
        type: 3}
      propertyPath: m_LocalPosition.y
      value: 1.38
      objectReference: {fileID: 0}
    - target: {fileID: 935696363530629351, guid: 96befc4691407bd4cb5b1ab85cdaf9e5,
        type: 3}
      propertyPath: m_LocalPosition.z
      value: 0
      objectReference: {fileID: 0}
    - target: {fileID: 935696363530629351, guid: 96befc4691407bd4cb5b1ab85cdaf9e5,
        type: 3}
      propertyPath: m_LocalRotation.x
      value: 0
      objectReference: {fileID: 0}
    - target: {fileID: 935696363530629351, guid: 96befc4691407bd4cb5b1ab85cdaf9e5,
        type: 3}
      propertyPath: m_LocalRotation.y
      value: 0
      objectReference: {fileID: 0}
    - target: {fileID: 935696363530629351, guid: 96befc4691407bd4cb5b1ab85cdaf9e5,
        type: 3}
      propertyPath: m_LocalRotation.z
      value: 0
      objectReference: {fileID: 0}
    - target: {fileID: 935696363530629351, guid: 96befc4691407bd4cb5b1ab85cdaf9e5,
        type: 3}
      propertyPath: m_LocalRotation.w
      value: 1
      objectReference: {fileID: 0}
    - target: {fileID: 935696363530629351, guid: 96befc4691407bd4cb5b1ab85cdaf9e5,
        type: 3}
      propertyPath: m_RootOrder
      value: 0
      objectReference: {fileID: 0}
    - target: {fileID: 935696363530629351, guid: 96befc4691407bd4cb5b1ab85cdaf9e5,
        type: 3}
      propertyPath: m_LocalEulerAnglesHint.x
      value: 0
      objectReference: {fileID: 0}
    - target: {fileID: 935696363530629351, guid: 96befc4691407bd4cb5b1ab85cdaf9e5,
        type: 3}
      propertyPath: m_LocalEulerAnglesHint.y
      value: 0
      objectReference: {fileID: 0}
    - target: {fileID: 935696363530629351, guid: 96befc4691407bd4cb5b1ab85cdaf9e5,
        type: 3}
      propertyPath: m_LocalEulerAnglesHint.z
      value: 0
      objectReference: {fileID: 0}
    - target: {fileID: 935696363530629351, guid: 96befc4691407bd4cb5b1ab85cdaf9e5,
        type: 3}
      propertyPath: m_LocalScale.x
      value: 0.10210097
      objectReference: {fileID: 0}
    - target: {fileID: 935696363530629351, guid: 96befc4691407bd4cb5b1ab85cdaf9e5,
        type: 3}
      propertyPath: m_LocalScale.y
      value: 0.10210097
      objectReference: {fileID: 0}
    - target: {fileID: 935696363530629351, guid: 96befc4691407bd4cb5b1ab85cdaf9e5,
        type: 3}
      propertyPath: m_LocalScale.z
      value: 0.10210097
      objectReference: {fileID: 0}
    - target: {fileID: 3552176948085314208, guid: 96befc4691407bd4cb5b1ab85cdaf9e5,
        type: 3}
      propertyPath: m_Layer
      value: 10
      objectReference: {fileID: 0}
    - target: {fileID: 8224694983543108497, guid: 96befc4691407bd4cb5b1ab85cdaf9e5,
        type: 3}
      propertyPath: m_Layer
      value: 10
      objectReference: {fileID: 0}
    m_RemovedComponents: []
  m_SourcePrefab: {fileID: 100100000, guid: 96befc4691407bd4cb5b1ab85cdaf9e5, type: 3}
